[11-12-2017 17:11:00] [Information] [3c2a22b7-2312-49b0-bc3c-003bc835c692] Seviço iniciado com [20] consumidores.
[11-12-2017 17:12:07] [Information] [4071aa6e-4f53-4caf-9ff6-0936581a12ec] Seviço iniciado com [20] consumidores.
[11-12-2017 17:12:07] [Information] [25d2ecae-8073-408b-8a6d-346460bc6e84] Consumo da fila "GatSMS" iniciado, consumer tag ["amq.ctag-10enUMU4872miCo2q7NxOg"]
[11-12-2017 17:12:07] [Debug] [25d2ecae-8073-408b-8a6d-346460bc6e84] Mensagem recebida na fila "GatSMS".
[11-12-2017 17:12:08] [Information] [25d2ecae-8073-408b-8a6d-346460bc6e84] Mensagem enviada com sucesso, mensagem: [<Model>
	<identificador>GAT</identificador>
	<celular>5511971723609</celular>
	<mensagem>Mensagem GAT, seja um credenciado Ticket</mensagem>
</Model>
]
[11-12-2017 17:12:24] [Information] [efdd8ec3-3ec4-4efc-afbb-01e545a8b6f3] Consumo da fila "GatSMS" iniciado, consumer tag ["amq.ctag-bUDtbNL5OWA1EXidWUdkzA"]
[11-12-2017 17:12:24] [Information] [c9a44215-1fc7-400e-aa7b-6295f0485cdd] Consumo da fila "GatSMS" iniciado, consumer tag ["amq.ctag-d8xp___2mugRc-ONZf8CNQ"]
[11-12-2017 17:12:24] [Information] [2938c481-aa33-4fec-a110-a0a5ef49f8bb] Consumo da fila "GatSMS" iniciado, consumer tag ["amq.ctag-NjreYTe1BBrANq5N6vGK1g"]
[11-12-2017 17:12:24] [Information] [e0f47749-4054-46f0-8d90-b3af8e1e3303] Consumo da fila "GatSMS" iniciado, consumer tag ["amq.ctag-C_lSi53y9nFFK12k-pH3Hw"]
[11-12-2017 17:12:24] [Information] [0174034c-24c1-41e5-80e5-75f01318aea2] Consumo da fila "GatSMS" iniciado, consumer tag ["amq.ctag-HmmiMTbO8VpHtJynRHnNQA"]
[11-12-2017 17:12:24] [Information] [6b5887bc-6151-4bc2-8e31-5cd2fd8f893e] Consumo da fila "GatSMS" iniciado, consumer tag ["amq.ctag-jCjYPRHliW5YXNweGdgKRA"]
[11-12-2017 17:12:24] [Information] [83bb58ed-373d-4799-9d00-51a967726bda] Consumo da fila "GatSMS" iniciado, consumer tag ["amq.ctag-rULNhBr3a7GPsCBs82sLzg"]
[11-12-2017 17:12:24] [Information] [5d0a13e3-82ab-4c3b-aad2-da247971b3e1] Consumo da fila "GatSMS" iniciado, consumer tag ["amq.ctag-qDb8Cgx0kK4bM19KyIodvw"]
[11-12-2017 17:12:24] [Information] [44570391-f6a2-4072-b292-4842c25df143] Consumo da fila "GatSMS" iniciado, consumer tag ["amq.ctag-1dzk2q9wRuchDdUWcNjiPw"]
[11-12-2017 17:12:24] [Information] [3a609906-16a4-4856-93aa-22352ba54495] Consumo da fila "GatSMS" iniciado, consumer tag ["amq.ctag-t6CcrJ7zTTxsX5KjWYOItw"]
[11-12-2017 17:12:24] [Information] [33b1ce50-462d-4eec-9c9c-d36eca531d00] Consumo da fila "GatSMS" iniciado, consumer tag ["amq.ctag-6KbMw5Ht1bDUK261CKnigA"]
[11-12-2017 17:12:24] [Information] [7a95ce31-f77f-4c0f-85cd-cee757e34d70] Consumo da fila "GatSMS" iniciado, consumer tag ["amq.ctag-QxPXCBWUYx6_FWT4rUgfzw"]
[11-12-2017 17:12:24] [Information] [290158cf-0132-4a3b-aec7-e0d73998c045] Consumo da fila "GatSMS" iniciado, consumer tag ["amq.ctag--2kxO5BfdGe_nLbYymAF5w"]
[11-12-2017 17:12:24] [Information] [d889dae8-d9e9-42d6-8c3c-b49b0e044d5c] Consumo da fila "GatSMS" iniciado, consumer tag ["amq.ctag-itnBT3tQXElPGtG6GTer7w"]
[11-12-2017 17:12:24] [Information] [0d71b41b-8e65-4081-9c43-6981352b64f6] Consumo da fila "GatSMS" iniciado, consumer tag ["amq.ctag-C2iilUG9KyD7Gg7dBhRjqg"]
[11-12-2017 17:12:24] [Information] [736aec64-8261-4cb8-8def-0d35dc8f1bcc] Consumo da fila "GatSMS" iniciado, consumer tag ["amq.ctag-HqGZ0k3pQR7pUw8N0Rj3tw"]
[11-12-2017 17:12:24] [Information] [e829a408-c653-4171-99fa-b62b3e8fa930] Consumo da fila "GatSMS" iniciado, consumer tag ["amq.ctag-aDWAUUK-v0_02TZrYbPd0A"]
[11-12-2017 17:12:24] [Information] [b78eddac-95fb-4db1-a3d9-6d980ddfbd0d] Consumo da fila "GatSMS" iniciado, consumer tag ["amq.ctag-Z-9CSD5naWJ3WUosEEDOzw"]
[11-12-2017 17:12:24] [Information] [a4d51d8c-4b38-4371-9d43-2e5090117614] Consumo da fila "GatSMS" iniciado, consumer tag ["amq.ctag-QnmTmrHYe0bijZiqseUFxA"]
